Getting Started
…
And as a data.frame:

forecast_data <- suppressMessages(forecast_data(conn, first_forecast_id, is_json=FALSE))
forecast_data
#> # A tibble: 4,468 x 7
#>    location   target     type  unit  bin_start_incl bin_end_notincl   value
#>    <chr>      <chr>      <chr> <chr>          <dbl>           <dbl>   <dbl>
#>  1 US Nation… Season on… point week              NA              NA 5.00e+0
#>  2 US Nation… Season on… bin   week              45              46 3.00e-4
#>  3 US Nation… Season on… bin   week              46              47 8.00e-4
#>  4 US Nation… Season on… bin   week              47              48 7.00e-4
#>  5 US Nation… Season on… bin   week              48              49 1.00e-3
#>  6 US Nation… Season on… bin   week              49              50 3.00e-3
#>  7 US Nation… Season on… bin   week              50              51 9.60e-3
#>  8 US Nation… Season on… bin   week              51              52 1.15e-2
#>  9 US Nation… Season on… bin   week              52              53 5.10e-3
#> 10 US Nation… Season on… bin   week               1               2 5.00e-4
#> # … with 4,458 more rows
